Modelle für Vorhersage optimieren • plausi
…
testdata$newpred <- predict(svm_mod, testdata)

testdata %>% select(mun_id,mun_name, v6360,newpred)
#> # A tibble: 163 x 4
#>    mun_id mun_name           v6360 newpred
#>    <chr>  <chr>              <dbl>   <dbl>
#>  1 1      Aeugst am Albis     48.8    49.9
#>  2 2      Affoltern am Albis  49.1    50.6
#>  3 3      Bonstetten          52.2    49.4
#>  4 4      Hausen am Albis     50.4    51.0
#>  5 5      Hedingen            52.5    51.8
#>  6 6      Kappel am Albis     45.5    46.1
#>  7 7      Knonau              48.2    48.3
#>  8 8      Maschwanden         51.9    48.4
#>  9 9      Mettmenstetten      46.9    49.6
#> 10 10     Obfelden            49.5    48.8
#> # … with 153 more rows

Paramter-Tuning mit dem plausi-package

Das Tuning-Grid kann den Funktionen des plausi-packages ebenfalls übergeben werden.

# works
predict_single_vote("v6360",
                    traindata=traind, 
                    testdata=testdata,
                    method="svmRadial",
                    geovars=c("mun_id","mun_name" ),
                    tuneGrid=svmGrid,
                    tuneLength = 10)
#> # A tibble: 163 x 5
#>    mun_id mun_name            pred  real vorlage
#>    <chr>  <chr>              <dbl> <dbl> <chr>  
#>  1 1      Aeugst am Albis     49.9  48.8 v6360  
#>  2 2      Affoltern am Albis  50.6  49.1 v6360  
#>  3 3      Bonstetten          49.4  52.2 v6360  
#>  4 4      Hausen am Albis     51.0  50.4 v6360  
#>  5 5      Hedingen            51.8  52.5 v6360  
#>  6 6      Kappel am Albis     46.1  45.5 v6360  
#>  7 7      Knonau              48.3  48.2 v6360  
#>  8 8      Maschwanden         48.4  51.9 v6360  
#>  9 9      Mettmenstetten      49.6  46.9 v6360  
#> 10 10     Obfelden            48.8  49.5 v6360  
#> # … with 153 more rows

# not working yet as dots are not passed as intended
predict_votes(votes=c("v6360"),
                    train=traind, 
                    test=testdata,
                    method="svmRadial",
                    geovars=c("mun_id","mun_name"),
                    tuneGrid=svmGrid,
                    tuneLength = 10)
#> # A tibble: 163 x 5
#>    mun_id mun_name            pred  real vorlage
#>    <chr>  <chr>              <dbl> <dbl> <chr>  
#>  1 1      Aeugst am Albis     50.2  48.8 v6360  
#>  2 2      Affoltern am Albis  50.4  49.1 v6360  
#>  3 3      Bonstetten          46.3  52.2 v6360  
#>  4 4      Hausen am Albis     51.4  50.4 v6360  
#>  5 5      Hedingen            49.9  52.5 v6360  
#>  6 6      Kappel am Albis     46.1  45.5 v6360  
#>  7 7      Knonau              48.8  48.2 v6360  
#>  8 8      Maschwanden         47.6  51.9 v6360  
#>  9 9      Mettmenstetten      49.7  46.9 v6360  
#> 10 10     Obfelden            48.8  49.5 v6360  
#> # … with 153 more rows
…
