Auffällige Stimmbeteiligungswerte identifizieren • plausi
…
Ordne nach Häufigkeit

problem_vorlagen <- diff2 %>% 
  separate(combination,into=c("vorlage1","vorlage2"), sep="_") %>% 
  filter(outlier==TRUE) %>% 
  pivot_longer( cols = -c(canton_name,mun_name,mun_id, difference, outlier), names_to="vorlage", values_to="vorlage_id") %>% 
  group_by(mun_name,mun_id,vorlage_id) %>% 
  summarize(n=n()) %>% 
  arrange(desc(n))

## `summarise()` regrouping output by 'mun_name', 'mun_id' (override with `.groups` argument)

problem_vorlagen

## # A tibble: 85 x 4
## # Groups:   mun_name, mun_id [25]
##    mun_name             mun_id vorlage_id     n
##    <fct>                <fct>  <chr>      <int>
##  1 Buch am Irchel       24     6320           4
##  2 Hüttikon             87     6320           4
##  3 Oetwil am See        157    6320           4
##  4 Regensberg           95     6340           4
##  5 Bülach               53     6350           3
##  6 Dorf                 26     6310           3
##  7 Maschwanden          8      6340           3
##  8 Schöfflisdorf        99     6340           3
##  9 Thalheim an der Thur 39     6350           3
## 10 Adlikon              21     6330           2
## # … with 75 more rows
…
